,epoch,mags,mag_err_down,mag_err_up
0,0,22.5159439286871,0.7537431682243366,0.44061726152040065
1,1,22.14222892765207,0.4759799915607331,0.32979076792721634
2,2,22.5159439286871,0.7530953722363433,0.44040155325393704
3,3,22.5159439286871,0.7533484437120124,0.44048584342899966
4,4,22.5159439286871,0.7533427722406939,0.44048395472657736
5,5,21.840750245756567,0.34016585148448636,0.25863060602202625
6,6,21.896291692887075,0.3612793280067659,0.27060979109051164
7,7,22.5159439286871,0.7539057856922616,0.44067138424793656
8,8,22.495906795003933,0.7341789528386511,0.4340262127529605
9,9,22.5159439286871,0.7534873392771799,0.44053209405714616
10,10,22.5159439286871,0.7539286927166843,0.4406790073494807
11,11,22.5159439286871,0.7537314912452153,0.440613374745008
12,12,21.928733675119798,0.37430206457476656,0.27781923847274215
13,13,22.5159439286871,0.7536530916664159,0.44058727737863523
14,14,22.290153615372496,0.5668032675495732,0.3704991375436003
15,15,21.518083787061812,0.24206589484488228,0.1978136676184754
16,16,22.5159439286871,0.7537424005642269,0.44061700600033726
17,17,21.513655874633145,0.24103533648953623,0.19712586401758403
18,18,22.5159439286871,0.7533536104561235,0.44048756403669453
19,19,22.48586636982878,0.7247253024736312,0.4307838778035969
20,20,22.5159439286871,0.752574989159953,0.4402281476392031
21,21,21.96767917144387,0.39074539768922395,0.2867332419099554
22,22,22.5159439286871,0.7530863432413692,0.4403985454948438
23,23,22.5159439286871,0.7537734636572345,0.44062734533645614
24,24,22.3421435355477,0.6039290691229009,0.3857850058706701
25,25,22.254004080061154,0.5427160231570451,0.36017734239038257
26,26,22.07955671399006,0.44302450654713676,0.3137423248017213
27,27,22.451305449750176,0.6929145421452264,0.41958988720977164
28,28,22.5159439286871,0.7535264747474557,0.44054512429521286
29,29,21.83829580628,0.33921873690471754,0.2580846186870148
30,30,22.5159439286871,0.7531690598618684,0.44042609899482993
31,31,20.31102127028138,0.07373800476908964,0.0690469766647716
32,32,19.33214551727736,0.029343359251140476,0.02857114312561276
33,33,19.026189435052615,0.022055739295132434,0.021616602950387885
34,34,19.057608403671736,0.022723845293475736,0.022257981657157092
35,35,19.471980186745835,0.033448570986852465,0.03244883421008934
36,36,20.002959826458365,0.05508315732067616,0.052423013369916435
37,37,20.796076663083937,0.11756421575981114,0.10606888097435499
38,38,21.031558251176406,0.148162234476316,0.1303500477309076
39,39,20.980404375677388,0.1409114248204505,0.12470638823105704
40,40,20.889675073112652,0.12891200316928433,0.11521758013888914
41,41,20.763104110542127,0.11399513729107323,0.10315548565842389
42,42,21.036995744640436,0.14892253304100736,0.13093795606933276
43,43,20.78507864395808,0.11643635370512585,0.10515009981228103
44,44,21.06780468879586,0.15351342763701392,0.13447245763718774
45,45,20.85927248031555,0.1251326786889565,0.11218980341464553
46,46,21.03424335362564,0.14850267430447114,0.13061338643542875
47,47,20.77696310577297,0.11553343639944437,0.10441331385409683
48,48,21.01090270948516,0.1451538644462503,0.12801661784465523
49,49,21.23107749429287,0.1805654288194124,0.1547744727610398
